<!DOCTYPE html PUBLIC "-//W3C//DTD XHTML 1.0 Transitional//EN" "http://www.w3.org/TR/xhtml1/DTD/xhtml1-transitional.dtd">
<html xmlns="http://www.w3.org/1999/xhtml">
<head>
	<meta http-equiv="Content-Type" content="text/html; charset=utf-8" />	<title>PopAds - Home</title>
	<link rel="stylesheet" type="text/css" href="https://static.popads.net/css/front_set.css?1391017487" onerror="if(this.href.indexOf('static.')&gt;=0)this.href='https://www.popads.net/css/front_set.css?1391017487'" /><link href="/favicon.ico" type="image/x-icon" rel="icon" /><link href="/favicon.ico" type="image/x-icon" rel="shortcut icon" /><meta name="keywords" content="popads, popunder network, webmaster network, popunders, popups, marketing, advertising agency" /><meta name="description" content="Simply the best popunder adnetwork in the industry - try and check yourself!" /><link href="https://www.popads.net/pages/en" type="application/rss+xml" rel="alternate" title="language" /><link href="https://www.popads.net/pages/PopAds.net" type="application/rss+xml" rel="alternate" title="author" /></head>
<body>
	
	<script type="text/javascript" src="https://static.popads.net/js/jquery.js?1376733482" onerror="s=document.createElement('script');this.parentNode.appendChild(s);s.src='https://www.popads.net/js/jquery.js?1376733482';"></script>
	<script type="text/javascript" src="https://static.popads.net/js/various.js?1454527955" onerror="s=document.createElement('script');this.parentNode.appendChild(s);s.src='https://www.popads.net/js/various.js?1454527955';"></script>
	<div id="container">
		<div id="header">
			<div class="logo">
				<a href="/"><img src="https://static.popads.net/img/logo.png?1372004728" onerror="if(this.src.indexOf('static.')&gt;=0)this.src='https://www.popads.net/img/logo.png?1372004728'" alt="" /></a>			</div>
			<div class="nav">
				<ul>
					<li>
						<img src="https://static.popads.net/img/bg/rounded/nav/left.png?1372004730" onerror="if(this.src.indexOf('static.')&gt;=0)this.src='https://www.popads.net/img/bg/rounded/nav/left.png?1372004730'" class="left" alt="" />						<div class="left"><a href="/">HOME</a></div>
						<img src="https://static.popads.net/img/bg/rounded/nav/right.png?1372004730" onerror="if(this.src.indexOf('static.')&gt;=0)this.src='https://www.popads.net/img/bg/rounded/nav/right.png?1372004730'" class="left" alt="" />					</li>
					<li>
						<img src="https://static.popads.net/img/bg/rounded/nav/left.png?1372004730" onerror="if(this.src.indexOf('static.')&gt;=0)this.src='https://www.popads.net/img/bg/rounded/nav/left.png?1372004730'" class="left" alt="" />						<div class="left"><a href="/advertisers.html">ADVERTISERS</a></div>
						<img src="https://static.popads.net/img/bg/rounded/nav/right.png?1372004730" onerror="if(this.src.indexOf('static.')&gt;=0)this.src='https://www.popads.net/img/bg/rounded/nav/right.png?1372004730'" class="left" alt="" />					</li>
					<li>
						<img src="https://static.popads.net/img/bg/rounded/nav/left.png?1372004730" onerror="if(this.src.indexOf('static.')&gt;=0)this.src='https://www.popads.net/img/bg/rounded/nav/left.png?1372004730'" class="left" alt="" />						<div class="left"><a href="/publishers.html">PUBLISHERS</a></div>
						<img src="https://static.popads.net/img/bg/rounded/nav/right.png?1372004730" onerror="if(this.src.indexOf('static.')&gt;=0)this.src='https://www.popads.net/img/bg/rounded/nav/right.png?1372004730'" class="left" alt="" />					</li>
					<li>
						<img src="https://static.popads.net/img/bg/rounded/nav/left.png?1372004730" onerror="if(this.src.indexOf('static.')&gt;=0)this.src='https://www.popads.net/img/bg/rounded/nav/left.png?1372004730'" class="left" alt="" />						<div class="left"><a href="http://www.popads.net/blog">BLOG</a></div>
						<img src="https://static.popads.net/img/bg/rounded/nav/right.png?1372004730" onerror="if(this.src.indexOf('static.')&gt;=0)this.src='https://www.popads.net/img/bg/rounded/nav/right.png?1372004730'" class="left" alt="" />					</li>
					<li>
						<img src="https://static.popads.net/img/bg/rounded/nav/left.png?1372004730" onerror="if(this.src.indexOf('static.')&gt;=0)this.src='https://www.popads.net/img/bg/rounded/nav/left.png?1372004730'" class="left" alt="" />						<div class="left"><a href="/faq.html">FAQ</a></div>
						<img src="https://static.popads.net/img/bg/rounded/nav/right.png?1372004730" onerror="if(this.src.indexOf('static.')&gt;=0)this.src='https://www.popads.net/img/bg/rounded/nav/right.png?1372004730'" class="left" alt="" />					</li>
					<li>
						<img src="https://static.popads.net/img/bg/rounded/nav/left.png?1372004730" onerror="if(this.src.indexOf('static.')&gt;=0)this.src='https://www.popads.net/img/bg/rounded/nav/left.png?1372004730'" class="left" alt="" />						<div class="left"><a href="/report-abuse.html">REPORT ABUSE</a></div>
						<img src="https://static.popads.net/img/bg/rounded/nav/right.png?1372004730" onerror="if(this.src.indexOf('static.')&gt;=0)this.src='https://www.popads.net/img/bg/rounded/nav/right.png?1372004730'" class="left" alt="" />					</li>
					<li>
						<img src="https://static.popads.net/img/bg/rounded/nav/left.png?1372004730" onerror="if(this.src.indexOf('static.')&gt;=0)this.src='https://www.popads.net/img/bg/rounded/nav/left.png?1372004730'" class="left" alt="" />						<div class="left"><a href="/contact.html">CONTACT</a></div>
						<img src="https://static.popads.net/img/bg/rounded/nav/right.png?1372004730" onerror="if(this.src.indexOf('static.')&gt;=0)this.src='https://www.popads.net/img/bg/rounded/nav/right.png?1372004730'" class="left" alt="" />					</li>
				</ul>
			</div>
			<div class="clear"></div>
		</div>
		<div id="main">
	<div class="main_bottom">
		<div class="main_home">
			<div id="home_top">
				<div class="left_col">
					<h1>Smart Network, Powerful Solutions</h1>
					<h2>See what is possible with PopAds, re-discover potential</h2>
					<p>PopAds is simply the best paying advertising network specialized in popunders on the Internet. We guarantee you that no other popunder ad network will pay better than us! Just register and see for yourself. Prepare to be astonished!</p>
				</div>
				<div class="right_col">
					<div id="members_dash">
	<div class="top">Member's Dashboard</div>
	<div class="content">
		<div class="inner">
							<form action="https://www.popads.net/users/login?sid=128614f18af666088d1a2ea435bb808b57155308" autocomplete="off" method="post" accept-charset="utf-8"><div style="display:none;"><input type="hidden" name="_method" value="POST" /><input type="hidden" name="data[_Token][key]" value="a27da13f9bac007a823cbae37f833c73e3dfdcc8" id="Token1803212357" /></div>				<div class="input_container">
					<img src="https://static.popads.net/img/bg/input/members/left.png?1372004729" onerror="if(this.src.indexOf('static.')&gt;=0)this.src='https://www.popads.net/img/bg/input/members/left.png?1372004729'" class="left" alt="" />					<div class="input"><div class="input text required"><label for="UserUsername">Username</label><input name="data[User][username]" type="text" maxlength="30" id="UserUsername" /></div></div>
					<img src="https://static.popads.net/img/bg/input/members/right.png?1372004729" onerror="if(this.src.indexOf('static.')&gt;=0)this.src='https://www.popads.net/img/bg/input/members/right.png?1372004729'" class="left" alt="" />				</div>
				<div class="clear"></div>
				<br />
				<div class="input_container">
					<img src="https://static.popads.net/img/bg/input/members/left.png?1372004729" onerror="if(this.src.indexOf('static.')&gt;=0)this.src='https://www.popads.net/img/bg/input/members/left.png?1372004729'" class="left" alt="" />					<div class="input"><div class="input password"><label for="UserPassword">Password</label><input type="password" name="data[User][password]" id="UserPassword" /></div></div>
					<img src="https://static.popads.net/img/bg/input/members/right.png?1372004729" onerror="if(this.src.indexOf('static.')&gt;=0)this.src='https://www.popads.net/img/bg/input/members/right.png?1372004729'" class="left" alt="" />				</div>
				<div class="clear"></div>
				<br />
				<div class="left valign">
					<div class="input checkbox"><input type="hidden" name="data[User][remember_me]" id="UserRememberMe_" value="0" /><input type="checkbox" name="data[User][remember_me]" value="1" id="UserRememberMe" /><label for="UserRememberMe">Remember Me</label></div>				</div>
				<div class="right valign">
					<a href="/users/forgot">Reset password</a> 
				</div>
				<div class="clear"></div><br />
				<div class="left">
					<input type="image" src="https://static.popads.net/img/btns/sign_in.png?" onerror="if(this.src.indexOf('static.')&gt;=0)this.src='https://www.popads.net/img/btns/sign_in.png?'" />				</div>
				<div style="display:none;"><input type="hidden" name="data[_Token][fields]" value="acf841aa433312d1abb4e5f553a335c2cddb1131%3A" id="TokenFields210008475" /></div></form>				<a href="/register.html"><img src="https://static.popads.net/img/btns/sign_up.png?1372004729" onerror="if(this.src.indexOf('static.')&gt;=0)this.src='https://www.popads.net/img/btns/sign_up.png?1372004729'" class="right" alt="" /></a>				<div class="clear"></div>		
								
		</div>
	</div>
</div>
				</div>
			</div>
			<div class="clear"></div>
			<div id="home_content">
				<div class="left_col">
					<h2 class="dark"><strong>Pop<span class="orange">Ads</span></strong> the new breed</h2>
					<br />
					<p class="dark bold spaced">Now it's your chance to experience an ad network that pays well and takes good care of its members.</p>
					<br />
					<p class="spaced">Join us now and start bringing top quality visitors to your website as an advertiser or simply become a publisher and monetize your website's traffic with high quality ads which appear as popunders. Our services are guaranteed to be fast, efficient and secure. There is no other ad network on the market that processes payment requests daily for publishers and there is no ad network on the market that can promote your website as efficient as we do for advertisers.</p>
					<div class="dashed_break">&nbsp;</div>
					<div id="home_features">
						<div class="feature core">
							<h4 class="orange">Dynamic Market</h4><br />
							<p class="spaced">It is <em>you</em> who choose the prices!</p>
						</div>
						<div class="feature scalable">
							<h4 class="orange">Perfect Support</h4><br />
							<p class="spaced">We offer one of the fastest support in the industry.</p>
						</div>
						<div class="clear"></div>	
						<div class="feature on_time">
							<h4 class="orange">Fast Payments</h4><br />
							<p class="spaced">Withdrawal requests are handled daily.</p>
						</div>
						<div class="feature financial">
							<h4 class="orange">High Security</h4><br />
							<p class="spaced">Our panel uses SSL technology, just like your bank.</p>
						</div>
						<div class="clear"></div>			
					</div>
				</div>
				<div class="right_col">
					<div class="blog">
						<h4 class="green">From Our Blog</h4>
					</div>
					<br />
										<div class="blog_item">
						<div class="dark bold"><a href="http://www.popads.net/blog/post/security-center" class="dark">Security Center</a></div>
						<div class="spaced">As some of our members started handling bigger amounts of money in their PopAds accounts, we have decided to set up additional security systems.
At this moment, we have added activity logs, where all...</div>
					</div>
										<div class="blog_item">
						<div class="dark bold"><a href="http://www.popads.net/blog/post/more-control-over-ad-content" class="dark">More control over ad content</a></div>
						<div class="spaced">As per many requests of our publishers, we have recently added a new opt-out options for campaigns promoting gambling or software downloads.
Publishers can take the decision on accepting such adverti...</div>
					</div>
										<div class="blog_item">
						<div class="dark bold"><a href="http://www.popads.net/blog/post/new-targeting-option-primespot" class="dark">New targeting option: PrimeSpo...</a></div>
						<div class="spaced">We have added a new campaign targeting option under <i>General information</i> tab - PrimeSpot. If you choose to buy PrimeSpot only traffic, your campaign will take part in bidding only if the visitor...</div>
					</div>
										<br />
					<div class="left">
						<a href="http://www.popads.net/blog?feed=rss2"><img src="https://static.popads.net/img/icons/rss.png?1372004729" onerror="if(this.src.indexOf('static.')&gt;=0)this.src='https://www.popads.net/img/icons/rss.png?1372004729'" class="inline_img" alt="" /></a> Subscribe				
					</div>
					<div class="right">
						<a href="http://www.popads.net/blog" class="blog_read_more">Read More</a>					
					</div>
					<div class="clear"></div>
				</div>
				<div class="clear"></div>
			</div>
		</div>	
	</div>
</div>
	</div>
	<div id="footer">
		<div class="left valign">
			Copyright PopAds.net 2010-2016 - All content and images are copyrighted - <a href="/privacy-policy.html">Privacy Policy</a>  - <a href="/terms-of-service.html">Terms of Service</a>		</div>
		<div class="clear"></div>
	</div>
		<script type="text/javascript">

	  var _gaq = _gaq || [];
	  _gaq.push(['_setAccount', 'UA-19696955-1']);
	  _gaq.push(['_setDomainName', '.popads.net']);
	  _gaq.push(['_trackPageview']);

	  (function() {
		var ga = document.createElement('script'); ga.type = 'text/javascript'; ga.async = true;
		ga.src = ('https:' == document.location.protocol ? 'https://ssl' : 'http://www') + '.google-analytics.com/ga.js';
		var s = document.getElementsByTagName('script')[0]; s.parentNode.insertBefore(ga, s);
	  })();

	</script>
	<div style="text-align: center" id="trustguardbox"></div>
	<script type="text/javascript" src="https://static.popads.net/js/trustguard.js?1443008335" onerror="s=document.createElement('script');this.parentNode.appendChild(s);s.src='https://www.popads.net/js/trustguard.js?1443008335';"></script></body>
</html>
